[
  {
    "id": 1,
    "name": "druide",
    "limitSpell0": "3",
    "limitSpell1": "2",
    "sorts": [
      {
        "id": 1,
        "name": "Assistance divine",
        "niveau": 0,
        "description": "Ce sort fournit à la créature une assistance divine momentanée, se traduisant par un bonus d’aptitude de +1 sur un jet d’attaque, un jet de sauvegarde ou un test de compétence. La cible doit choisir d’utiliser ou non son bonus avant de jeter le dé."
      },
      {
        "id": 2,
        "name": "Création d'eau",
        "niveau": 0,
        "description": "Ce sort donne naissance une eau pure et potable, semblable à l’eau de pluie. Elle apparaît dans n’importe quel récipient capable de l’accueillir, ou au-dessus d’une zone trois fois plus large (ce qui permet de créer une fine pluie ou de remplir plusieurs récipients de taille moindre). L’eau non-consommée disparaît au bout d’une journée.Note. Les sorts d’Invocation ne peuvent pas faire apparaître de substance ou d’objet à l’intérieur d’une créature. L’eau pèse 1 kg par litre. Un mètre cube d’eau contient environ mille litres et pèse une tonne."
      },
      {
        "id": 3,
        "name": "Apaisement des animaux",
        "niveau": 1,
        "description": "Ce sort calme les animaux, les rendant dociles et inoffensifs. Seuls les animaux ordinaires (ayant 1 ou 2 en Intelligence) peuvent être affectés. Tous doivent être de la même espèce et se trouver dans une sphère de 9 m de rayon. Le nombre de dés de vie affectés est égal à 2d4 + niveau de lanceur de sorts. Les créatures affectées restent là où elles se trouvent et ne cherchent ni à attaquer ni à s’enfuir, mais ne sont pas sans défense et réagissent si on les attaque. La moindre menace met immédiatement un terme à l’effet de l’enchantement."
      },
      {
        "id": 4,
        "name": "Appel d'un animal",
        "niveau": 1,
        "description": "Ce sort appelle l'animal sauvage du type choisi par le personnage le plus proche (à condition que son FP soit égal ou inférieur au niveau de lanceur de sorts du personnage). L'animal se dirige vers le personnage par ses propres moyens, le temps qu'il met pour arriver dépend donc de la distance à laquelle il se trouve lors de l'incantation du sort. S'il n'y a pas d'animal du type voulu capable d'atteindre le personnage avant la fin de la durée du sort, il en est informé mais le sort est tout de même perdu. Ce sort est plus efficace si le personnage a une certaine connaissance de la faune locale et le MJ peut autoriser un test de Connaissances (nature) DD 15 pour découvrir quels types d'animaux se trouvent dans la région.Quand l'animal arrive, il s'approche à 1, 50 m (1 c) du personnage et reste à côté de lui pendant toute la durée du sort. Au départ, il est indifférent et son attitude varie en fonction des circonstances et des interactions. À part cette attitude de départ, ce sort ne permet pas d'influer sur la bête ni de communiquer avec elle, bien que le personnage puisse utiliser d'autres sorts ou pouvoirs pour ce faire. Une fois le sort arrivé à expiration, l'animal se comporte comme à son habitude. La plupart des animaux s'éloignent mais un prédateur hostile peut attaquer, surtout s'il est affamé ou si on le provoque. Les animaux domestiques ou dressés par quelqu'un d'autre, y compris les familiers ou les compagnons animaux, ne sont pas affectés par appel d'un animal."
      }
    ]
  },
  {
    "id": 2,
    "name": "prêtre",
    "sorts": [
      {
        "id": 1,
        "niveau": 0,
        "sorts": [
          {
            "id": 1,
            "name": "Assistance divine",
            "description": "Ce sort fournit à la créature une assistance divine momentanée, se traduisant par un bonus d’aptitude de +1 sur un jet d’attaque, un jet de sauvegarde ou un test de compétence. La cible doit choisir d’utiliser ou non son bonus avant de jeter le dé."
          },
          {
            "id": 2,
            "name": "Création d'eau",
            "description": "Ce sort donne naissance une eau pure et potable, semblable à l’eau de pluie. Elle apparaît dans n’importe quel récipient capable de l’accueillir, ou au-dessus d’une zone trois fois plus large (ce qui permet de créer une fine pluie ou de remplir plusieurs récipients de taille moindre). L’eau non-consommée disparaît au bout d’une journée.Note. Les sorts d’Invocation ne peuvent pas faire apparaître de substance ou d’objet à l’intérieur d’une créature. L’eau pèse 1 kg par litre. Un mètre cube d’eau contient environ mille litres et pèse une tonne."
          }
        ]
      },
      {
        "id": 2,
        "niveau": 1,
        "sorts": [
          {
            "id": 1,
            "name": "Apaisement des animaux",
            "description": "Ce sort calme les animaux, les rendant dociles et inoffensifs. Seuls les animaux ordinaires (ayant 1 ou 2 en Intelligence) peuvent être affectés. Tous doivent être de la même espèce et se trouver dans une sphère de 9 m de rayon. Le nombre de dés de vie affectés est égal à 2d4 + niveau de lanceur de sorts. Les créatures affectées restent là où elles se trouvent et ne cherchent ni à attaquer ni à s’enfuir, mais ne sont pas sans défense et réagissent si on les attaque. La moindre menace met immédiatement un terme à l’effet de l’enchantement."
          },
          {
            "id": 2,
            "name": "Appel d'un animal",
            "description": "Ce sort appelle l'animal sauvage du type choisi par le personnage le plus proche (à condition que son FP soit égal ou inférieur au niveau de lanceur de sorts du personnage). L'animal se dirige vers le personnage par ses propres moyens, le temps qu'il met pour arriver dépend donc de la distance à laquelle il se trouve lors de l'incantation du sort. S'il n'y a pas d'animal du type voulu capable d'atteindre le personnage avant la fin de la durée du sort, il en est informé mais le sort est tout de même perdu. Ce sort est plus efficace si le personnage a une certaine connaissance de la faune locale et le MJ peut autoriser un test de Connaissances (nature) DD 15 pour découvrir quels types d'animaux se trouvent dans la région.Quand l'animal arrive, il s'approche à 1, 50 m (1 c) du personnage et reste à côté de lui pendant toute la durée du sort. Au départ, il est indifférent et son attitude varie en fonction des circonstances et des interactions. À part cette attitude de départ, ce sort ne permet pas d'influer sur la bête ni de communiquer avec elle, bien que le personnage puisse utiliser d'autres sorts ou pouvoirs pour ce faire. Une fois le sort arrivé à expiration, l'animal se comporte comme à son habitude. La plupart des animaux s'éloignent mais un prédateur hostile peut attaquer, surtout s'il est affamé ou si on le provoque. Les animaux domestiques ou dressés par quelqu'un d'autre, y compris les familiers ou les compagnons animaux, ne sont pas affectés par appel d'un animal."
          },
          {
            "id": 3,
            "name": "Aspect du faucon",
            "description": "Le personnage prend l'aspect d'un faucon. Ses yeux s'élargissent et ressemblent à ceux d'un prédateur et des plumes lui poussent des deux côtés de la tête. Il gagne un bonus de compétence de +3 aux tests de Perception, un bonus de compétence de +1 aux attaques à distance et le multiplicateur de coup critique de son arc ou de son arbalète passe à 19-20/x3. Cet effet ne se cumule pas avec tout autre effet qui augmente la plage de critiques d'une arme comme le don Science du critique ou une arme acérée."
          }
        ]
      }
    ]
  }
]
